{
  "names": [
    "Small Lizard"
  ],
  "attackAnim": 2776,
  "attackSound": 605,
  "defenceAnim": 2777,
  "defendSound": 607,
  "deathAnim": 2778,
  "deathDelay": 6,
  "deathSound": 606,
  "respawnDelay": 59,
  "hitpoints": 150,
  "maxHit": 40,
  "attackStyle": "MELEE",
  "combatLevels": {
    "ATTACK": 10,
    "RANGE": 1,
    "STRENGTH": 10,
    "DEFENSE": 10,
    "MAGE": 1
  },
  "attackRange": -1,
  "attackGfx": -1,
  "attackProjectile": -1,
  "agressivenessType": "PASSIVE",
  "aggroDistance": 4,
  "deAggroDistance": -1,
  "maxDistFromSpawn": -1
}